{
   "master": {
      "mesh": {
         "type": "file",
         "path": "mesh_matrix.e",
         "refinements": "0"
      },
      "space": {
         "system-name": "master",
         "variables": [
            {
               "name": "u",
               "order": "1"
            }
         ],
          "boundary-conditions" : [
            {
               "side" : 1,
               "value" : 1
            },
            {
               "side": "2",
               "value": "4"
            }
          ]
      },
      "diffusivity-blocks": [
         {
            "value": "1e-6",
            "block": "1"
         },
         {
            "value": "1e-5",
            "block": "2"
         }
      ],
      "post-processors" : [
          {
              "type" : "flux",
              "side" : 1,
              "diffusivity" : 1e-5
          }
      ]
   },
   "slave": {
      "mesh": {
         "type": "file",
         "path": "fracture.e",
         "refinements": "1"
      },
      "space": {
         "system-name": "slave",
         "variables": [
            {
               "name": "u",
               "order": "1",
               "fe-family": "LAGRANGE"
            }
         ]
      },
      "forcing-function": [],
      "diffusivity-blocks": [
         {
            "value": "1e-3",
            "block": "1"
         }
      ]
   },
   "solve-strategy" : "static-condensation",
   "use-algebraic-stabilization" : true,
   "use-mg": "true",
   "mg-levels": "2",
   "use-biorth" : true,
   "flow-type": "transient",
   "transport": {
      "dt": "1e7",
      "simulation-time": "1000000001.0",
      "lump-mass-matrix": "true",
      "regularization-parameter": "0.0",
      "use-upwinding": "true",
      "boundary-factor": "0.",
      "matrix": {
         "space": {
            "system-name": "transport",
            "variables": [
               {
                  "name": "c",
                  "order": "1",
                  "fe-family": "LAGRANGE"
               }
            ],
            "boundary-conditions": [
               {
                  "side": "2",
                  "value": "0.01",
                  "var": "0"
               }
            ]
         },
         "outflow": [
            {
               "side": "1"
            }
         ],
         "porosity": [
            {
               "value": "0.2",
               "block": "1"
            },
            {
               "value": "0.25",
               "block": "2"
            }
         ]
      },
      "fracture-network": {
         "space": {
            "system-name": "transport",
            "variables": [
               {
                  "name": "c",
                  "order": "1",
                  "fe-family": "LAGRANGE"
               }
            ]
         },
         "porosity": [
            {
               "value": "4e-3",
               "block": "1"
            }
         ]
      }
   }
}
